…
### 2. What is mean total number of steps taken per day?  
For this part of the assignment, ignore the missing values in the dataset. 

### 2. a) Calculation of Total Number of Steps taken per day

```r
TotalStepsDay <- ActivityData %>%
        group_by(date) %>%
        summarize(steps=sum(steps, na.rm=TRUE))
TotalStepsDay
```

```
## # A tibble: 61 x 2
##    date       steps
##  * <chr>      <int>
##  1 2012-10-01     0
##  2 2012-10-02   126
##  3 2012-10-03 11352
##  4 2012-10-04 12116
##  5 2012-10-05 13294
##  6 2012-10-06 15420
##  7 2012-10-07 11015
##  8 2012-10-08     0
##  9 2012-10-09 12811
## 10 2012-10-10  9900
## # ... with 51 more rows
```
…
### 3. What is the average daily activity pattern?
a)	Make a time series plot (i.e.  type = "l") of the 5-minute interval (x-axis) and the average number of steps taken, averaged across all days (y-axis)
b)	Which 5-minute interval, on average across all the days in the dataset, contains the maximum number of steps?     

### Time series analysis of the 5-minute interval (x-axis)     

```r
Interval_steps <- ActivityData %>%
        group_by(interval) %>%
        summarize(mean_steps=mean(steps, na.rm=TRUE))
Interval_steps
```

```
## # A tibble: 288 x 2
##    interval mean_steps
##  *    <int>      <dbl>
##  1        0     1.72  
##  2        5     0.340 
##  3       10     0.132 
##  4       15     0.151 
##  5       20     0.0755
##  6       25     2.09  
##  7       30     0.528 
##  8       35     0.868 
##  9       40     0     
## 10       45     1.47  
## # ... with 278 more rows
```
…
